…
city_prop_estimates_tidy
```

    ## # A tibble: 50 × 6
    ##    city_state       total_homicides homicides_unsolved prop_estimate conf_low
    ##    <chr>                      <int>              <int>         <dbl>    <dbl>
    ##  1 Chicago, IL                 5535               4073         0.736    0.724
    ##  2 Philadelphia, PA            3037               1360         0.448    0.430
    ##  3 Houston, TX                 2942               1493         0.507    0.489
    ##  4 Baltimore, MD               2827               1825         0.646    0.628
    ##  5 Detroit, MI                 2519               1482         0.588    0.569
    ##  6 Los Angeles, CA             2257               1106         0.490    0.469
    ##  7 St. Louis, MO               1677                905         0.540    0.515
    ##  8 Dallas, TX                  1567                754         0.481    0.456
    ##  9 Memphis, TN                 1514                483         0.319    0.296
    ## 10 New Orleans, LA             1434                930         0.649    0.623
    ## # ℹ 40 more rows
    ## # ℹ 1 more variable: conf_high <dbl>
…
